/home/mudassirfazal/API_Automation_Repo/cart-automation-suite/cartAutomationSuite/src/test/java/com/paytm/cartAutomationSuite/cartCheckOut/NormalCheckoutTest.java
/home/mudassirfazal/API_Automation_Repo/cart-automation-suite/cartAutomationSuite/src/test/java/com/paytm/cartAutomationSuite/WishList/BulkAddWishListTest.java
/home/mudassirfazal/API_Automation_Repo/cart-automation-suite/cartAutomationSuite/src/test/java/com/paytm/cartAutomationSuite/cartCheckOut/ExpressVerifyApiTest.java
/home/mudassirfazal/API_Automation_Repo/cart-automation-suite/cartAutomationSuite/src/test/java/com/paytm/cartAutomationSuite/WishList/AddToWishListTest.java
/home/mudassirfazal/API_Automation_Repo/cart-automation-suite/cartAutomationSuite/src/test/java/com/paytm/cartAutomationSuite/WishList/RemoveFromWishListTest.java
/home/mudassirfazal/API_Automation_Repo/cart-automation-suite/cartAutomationSuite/src/test/java/com/paytm/cartAutomationSuite/cartOperations/SetAddressAPITest.java
/home/mudassirfazal/API_Automation_Repo/cart-automation-suite/cartAutomationSuite/src/test/java/com/paytm/cartAutomationSuite/cartOperations/RemoveProductApiTest.java
/home/mudassirfazal/API_Automation_Repo/cart-automation-suite/cartAutomationSuite/src/test/java/com/paytm/cartAutomationSuite/cartOperations/UpdateCartApiTest.java
/home/mudassirfazal/API_Automation_Repo/cart-automation-suite/cartAutomationSuite/src/test/java/com/paytm/cartAutomationSuite/myOrder/GetOrderDetailAPITest.java
/home/mudassirfazal/API_Automation_Repo/cart-automation-suite/cartAutomationSuite/src/test/java/com/paytm/cartAutomationSuite/Item/ItemDetailTest.java
/home/mudassirfazal/API_Automation_Repo/cart-automation-suite/cartAutomationSuite/src/test/java/com/paytm/cartAutomationSuite/cartOperations/AddProductApiTest.java
/home/mudassirfazal/API_Automation_Repo/cart-automation-suite/cartAutomationSuite/src/test/java/com/paytm/cartAutomationSuite/WishList/GetWishListTest.java
/home/mudassirfazal/API_Automation_Repo/cart-automation-suite/cartAutomationSuite/src/test/java/com/paytm/cartAutomationSuite/cartCheckOut/ExpressCheckOutAPITest.java
