com/paytm/cartAutomationSuite/cartOperations/AddProductApiTest.class
com/paytm/cartAutomationSuite/WishList/AddToWishListTest.class
com/paytm/cartAutomationSuite/cartOperations/SetAddressAPITest.class
com/paytm/cartAutomationSuite/WishList/BulkAddWishListTest.class
com/paytm/cartAutomationSuite/WishList/RemoveFromWishListTest.class
com/paytm/cartAutomationSuite/cartCheckOut/ExpressVerifyApiTest.class
com/paytm/cartAutomationSuite/Item/ItemDetailTest.class
com/paytm/cartAutomationSuite/myOrder/GetOrderDetailAPITest.class
com/paytm/cartAutomationSuite/cartOperations/UpdateCartApiTest.class
com/paytm/cartAutomationSuite/WishList/GetWishListTest.class
com/paytm/cartAutomationSuite/cartCheckOut/NormalCheckoutTest.class
com/paytm/cartAutomationSuite/cartOperations/RemoveProductApiTest.class
com/paytm/cartAutomationSuite/cartCheckOut/ExpressCheckOutAPITest.class
